12 Comparing groups | R for Non-Programmers: A Guide for Social Scientists
…
If it is significant, is the difference small, medium or large?

Combining both analytical steps gives us a comprehensive answer to our research question and enables us to derive meaningful conclusions. This applies to all group comparisons covered in this book.

12.2.2 Two paired groups

Sometimes, we are not interested in the difference between subjects, but within them, i.e. we want to know whether the same person provides similar or different responses at two different times. Thus, it becomes evident that observations need to be somehow linked to each other. Paired groups are frequently used in longitudinal and experimental studies (e.g. pre-test vs post-test). For example, if we look at our imdb_top_250 dataset, we can see that some directors have more than one movie in the top 250. Therefore, we could be curious to know whether earlier movies of directors have been significantly more successful than their later ones.

# Number of movies directed by a particular person
imdb_top_250 %>%
  group_by(director) %>%
  summarise(n = n()) %>%
  arrange(desc(n))
## # A tibble: 155 × 2
##    director              n
##    <fct>             <int>
##  1 Christopher Nolan     7
##  2 Martin Scorsese       7
##  3 Stanley Kubrick       7
##  4 Akira Kurosawa        6
##  5 Alfred Hitchcock      6
##  6 Steven Spielberg      6
##  7 Billy Wilder          5
##  8 Charles Chaplin       5
##  9 Hayao Miyazaki        5
## 10 Ingmar Bergman        5
## # … with 145 more rows
…
This contingency table reflects the mosaic plot we created, but it does not show paired answers. If we sum the frequencies in each cell, we receive a score of 96, which equals the number of observations in ic_training. However, since we have two observations per person (i.e. paired responses), we only have 48 participants. Thus, this frequency table treats the pre and post-training group as independent from each other, which is obviously incorrect.

The current dataset includes two rows for each participant. Therefore, if we want to create a contingency table with paired scores, we first need to convert our data so that each participant is reflected by one row only, i.e. we need to make our data frame wider with pivot_wider().

# Creating data frame reflecting paired responses
paired_data <- ic_training %>%
  pivot_wider(id_cols = name,
              names_from = test,
              values_from = communication2)

paired_data
## # A tibble: 48 × 3
##    name                       pre_training post_training
##    <chr>                      <fct>        <fct>        
##  1 Hamlin, Christiana         no           no           
##  2 Horblit, Timothy           no           yes          
##  3 Grady, Justin              no           yes          
##  4 Grossetete-Alfaro, Giovana no           yes          
##  5 Dingae, Lori               no           yes          
##  6 el-Sabir, Saamyya          no           yes          
##  7 Reynolds, Tylor            no           yes          
##  8 Aslami, Andrew             no           yes          
##  9 Alexander, Kiri            no           yes          
## 10 Guzman Pineda, Timothy     no           yes          
## # … with 38 more rows
…
