7 Data Wrangling | R for Non-Programmers: A Guide for Social Scientists
…
# Import data from any file text file by defining the separator yourself
read_delim("00_raw_data/gender_age.txt", delim = "|")

7.2 Inspecting your raw data

For the rest of this chapter, we will use the wvs dataset from the r4np package. However, we do not know much about this dataset and therefore we cannot ask any research questions worth investigating. The first method of inspecting the data is to simply type the name of the object, i.e. wvs.

# Ensure you loaded the 'r4np' package first
library(r4np)

# Show the data in the console
wvs

## # A tibble: 69,578 × 9
##    `Participant ID` `Country Code` `Country name` Gender YearOfBirth   Age
##               <dbl> <chr>          <chr>           <dbl>       <dbl> <dbl>
##  1         20070001 AND            Andorra             1        1958    60
##  2         20070002 AND            Andorra             0        1971    47
##  3         20070003 AND            Andorra             0        1969    48
##  4         20070004 AND            Andorra             1        1956    62
##  5         20070005 AND            Andorra             0        1969    49
##  6         20070006 AND            Andorra             1        1967    51
##  7         20070007 AND            Andorra             1        1985    33
##  8         20070008 AND            Andorra             0        1963    55
##  9         20070009 AND            Andorra             1        1978    40
## 10         20070010 AND            Andorra             1        1979    38
## # … with 69,568 more rows, and 3 more variables: relationship_status <chr>,
## #   Freedom.of.Choice <dbl>, Satisfaction-with-life <dbl>
…
